…
    #>  [1] "shape_idx"   "fill"        "stroke"      "alpha"       "lwd"        
    #>  [6] "linejoin"    "lineend"     "linemitre"   "linedash"    "fill_rule"  
    #> [11] "fill_type"   "gradient"    "stroke_type" "beziers"     "lty"        
    #> [16] "points"

``` r
# The geometry data consists of a number of shapes.
# Each shape consists of 1-or-more paths 
# Each path may be open or closed (i.e. a line or a polygon)
# Each path is defined by one or more beziers
print(nsvg, width = Inf)
```

    #> # A tibble: 239 × 16
    #>    shape_idx fill      stroke    alpha   lwd linejoin lineend linemitre
    #>        <int> <chr>     <chr>     <dbl> <dbl> <chr>    <chr>       <dbl>
    #>  1         1 #FFFFFFFF #000000FF     1 0.304 mitre    butt            4
    #>  2         2 #FFFFFFFF #000000FF     1 0.304 mitre    butt            4
    #>  3         3 #FFFFFFFF #000000FF     1 0.304 mitre    butt            4
    #>  4         4 #FFFFFFFF #000000FF     1 0.304 mitre    butt            4
    #>  5         5 #FFFFFFFF #000000FF     1 0.304 mitre    butt            4
    #>  6         6 #FFFFFFFF #000000FF     1 0.304 mitre    butt            4
    #>  7         7 #FFFFFFFF #000000FF     1 0.304 mitre    butt            4
    #>  8         8 #FFFFFFFF #000000FF     1 0.304 mitre    butt            4
    #>  9         9 #FFFFFFFF #000000FF     1 0.304 mitre    butt            4
    #> 10        10 #FFFFFFFF #000000FF     1 0.304 mitre    butt            4
    #>    linedash  fill_rule fill_type gradient stroke_type beziers           lty  
    #>    <list>    <chr>     <chr>     <list>   <chr>       <list>            <chr>
    #>  1 <dbl [0]> winding   flat      <NULL>   flat        <tibble [16 × 5]> solid
    #>  2 <dbl [0]> winding   flat      <NULL>   flat        <tibble [16 × 5]> solid
    #>  3 <dbl [0]> winding   flat      <NULL>   flat        <tibble [16 × 5]> solid
    #>  4 <dbl [0]> winding   flat      <NULL>   flat        <tibble [16 × 5]> solid
    #>  5 <dbl [0]> winding   flat      <NULL>   flat        <tibble [16 × 5]> solid
    #>  6 <dbl [0]> winding   flat      <NULL>   flat        <tibble [16 × 5]> solid
    #>  7 <dbl [0]> winding   flat      <NULL>   flat        <tibble [16 × 5]> solid
    #>  8 <dbl [0]> winding   flat      <NULL>   flat        <tibble [16 × 5]> solid
    #>  9 <dbl [0]> winding   flat      <NULL>   flat        <tibble [16 × 5]> solid
    #> 10 <dbl [0]> winding   flat      <NULL>   flat        <tibble [16 × 5]> solid
    #>    points       
    #>    <list>       
    #>  1 <df [80 × 5]>
    #>  2 <df [80 × 5]>
    #>  3 <df [80 × 5]>
    #>  4 <df [80 × 5]>
    #>  5 <df [80 × 5]>
    #>  6 <df [80 × 5]>
    #>  7 <df [80 × 5]>
    #>  8 <df [80 × 5]>
    #>  9 <df [80 × 5]>
    #> 10 <df [80 × 5]>
    #> # ℹ 229 more rows
…
